No.,Password,Mail,Domain,com
1,Haslo1@3#4$,minere,ivipo,com,
2,haslo,elwin43k_t904v,deypo,com,
3,hasloXD@f,elwin43k_t904v,deypo,com,
4,noCHybaTyiJa0,moni43k_t104v,deypo,com
5,CoTOw_oguleZACHasuo,mail,domena,pl